{
	"info": {
		"_postman_id": "005ac821-f33f-4a48-a4cc-c044d57bbc49",
		"name": "compasso-teste",
		"schema": "https://schema.getpostman.com/json/collection/v2.1.0/collection.json"
	},
	"item": [
		{
			"name": "salvar-products",
			"request": {
				"method": "POST",
				"header": [],
				"body": {
					"mode": "raw",
					"raw": " {\r\n    \"name\": \"teste2\",\r\n    \"description\": \"teste3\",\r\n    \"price\": -55.60\r\n  }",
					"options": {
						"raw": {
							"language": "json"
						}
					}
				},
				"url": {
					"raw": "http://localhost:9999/api/v1/product-ms/products",
					"protocol": "http",
					"host": [
						"localhost"
					],
					"port": "9999",
					"path": [
						"api",
						"v1",
						"product-ms",
						"products"
					]
				}
			},
			"response": []
		},
		{
			"name": "atualizar-products",
			"request": {
				"method": "PUT",
				"header": [],
				"body": {
					"mode": "raw",
					"raw": " {\r\n    \"id\": \"402880eb796344c00179634584f30000\",\r\n    \"name\": \"teste\",\r\n    \"description\": \"teste\",\r\n    \"price\": -60.60\r\n  \r\n}",
					"options": {
						"raw": {
							"language": "json"
						}
					}
				},
				"url": {
					"raw": "http://localhost:9999/api/v1/product-ms/products/402880eb796344c00179634584f30001",
					"protocol": "http",
					"host": [
						"localhost"
					],
					"port": "9999",
					"path": [
						"api",
						"v1",
						"product-ms",
						"products",
						"402880eb796344c00179634584f30001"
					]
				}
			},
			"response": []
		},
		{
			"name": "get-products/search-lista",
			"protocolProfileBehavior": {
				"disableBodyPruning": true
			},
			"request": {
				"method": "GET",
				"header": [],
				"body": {
					"mode": "raw",
					"raw": "{\r\n    \"q\": \"teste\"\r\n}",
					"options": {
						"raw": {
							"language": "json"
						}
					}
				},
				"url": {
					"raw": "http://localhost:9999/api/v1/product-ms/products/search?q=teste&min_price=33&max_price=46",
					"protocol": "http",
					"host": [
						"localhost"
					],
					"port": "9999",
					"path": [
						"api",
						"v1",
						"product-ms",
						"products",
						"search"
					],
					"query": [
						{
							"key": "q",
							"value": "teste"
						},
						{
							"key": "min_price",
							"value": "33"
						},
						{
							"key": "max_price",
							"value": "46"
						}
					]
				}
			},
			"response": []
		},
		{
			"name": "get-products-lista Copy",
			"protocolProfileBehavior": {
				"disableBodyPruning": true
			},
			"request": {
				"method": "GET",
				"header": [],
				"body": {
					"mode": "raw",
					"raw": "",
					"options": {
						"raw": {
							"language": "json"
						}
					}
				},
				"url": {
					"raw": "http://localhost:9999/api/v1/product-ms/products",
					"protocol": "http",
					"host": [
						"localhost"
					],
					"port": "9999",
					"path": [
						"api",
						"v1",
						"product-ms",
						"products"
					]
				}
			},
			"response": []
		},
		{
			"name": "get-products-por id",
			"protocolProfileBehavior": {
				"disableBodyPruning": true
			},
			"request": {
				"method": "GET",
				"header": [],
				"body": {
					"mode": "raw",
					"raw": "",
					"options": {
						"raw": {
							"language": "json"
						}
					}
				},
				"url": {
					"raw": "http://localhost:9999/api/v1/product-ms/products/402880eb796351ba0179635849bc0005",
					"protocol": "http",
					"host": [
						"localhost"
					],
					"port": "9999",
					"path": [
						"api",
						"v1",
						"product-ms",
						"products",
						"402880eb796351ba0179635849bc0005"
					]
				}
			},
			"response": []
		},
		{
			"name": "delete-products-por id",
			"request": {
				"method": "DELETE",
				"header": [],
				"body": {
					"mode": "raw",
					"raw": "",
					"options": {
						"raw": {
							"language": "json"
						}
					}
				},
				"url": {
					"raw": "http://localhost:9999/api/v1/product-ms/products/402880eb79678632017967870b7e0000",
					"protocol": "http",
					"host": [
						"localhost"
					],
					"port": "9999",
					"path": [
						"api",
						"v1",
						"product-ms",
						"products",
						"402880eb79678632017967870b7e0000"
					]
				}
			},
			"response": []
		}
	]
}